augment_mark_obj — augment_mark_obj • tukelatoR
…
augment_mark_obj(mark_obj)

    Arguments

mark_obj
mark-obj

    Value

    augmented-mark-obj

    Examples

augment_mark_obj(example_marks)
#> # A tibble: 24,431 × 11
#>    id     name  course_id course_name  year term   mark grade     N  mean   diff
#>    <chr>  <chr> <glue>    <chr>       <dbl> <chr> <dbl> <chr> <int> <dbl>  <dbl>
#>  1 58012… Warn… MATHS-30… Comm Skill…  2016 Sem 2    79 D         9  71.1  8.87 
#>  2 19708… Dena… MATHS-30… Comm Skill…  2016 Sem 2    86 HD        4  74.5 15.3  
#>  3 10131… Wedg… MATHS-30… Comm Skill…  2016 Sem 2    77 D         9  61   18    
#>  4 58744… Judk… MATHS-30… Comm Skill…  2016 Sem 2    90 HD       12  90.8 -0.818
#>  5 34920… Hebr… MATHS-30… Comm Skill…  2016 Sem 2    65 C        11  47.6 19.1  
#>  6 04687… Rola… MATHS-30… Comm Skill…  2016 Sem 2    58 P         4  38.5 26    
#>  7 10169… Urib… MATHS-30… Comm Skill…  2016 Sem 2    NA WNF      11  54.3 NA    
#>  8 96816… Batt… MATHS-30… Comm Skill…  2016 Sem 2    61 P        16  53.6  7.93 
#>  9 53970… Smal… MATHS-30… Comm Skill…  2016 Sem 2    78 D        14  76.2  1.92 
#> 10 33910… al-N… MATHS-30… Comm Skill…  2016 Sem 2    71 C         4  53   24    
#> # ℹ 24,421 more rows
…
